Correlations between Candidate Models and previously established Models
…
$fsz32ob_m
# A tibble: 32 × 8
   cand_model   sc_gm1   sc_gm2   sc_gm3   sc_gm4  sc_gm5  sc_gm6   sc_gm7
   <chr>         <dbl>    <dbl>    <dbl>    <dbl>   <dbl>   <dbl>    <dbl>
 1 fsz32ob1    0.139    0.399   -0.0504   0.0897   0.281   0.142   0.156  
 2 fsz32ob2    0.124   -0.0505  -0.0521  -0.205   -0.811   0.141  -0.00470
 3 fsz32ob3    0.128    0.0576  -0.0681  -0.135   -0.0388  0.421  -0.0702 
 4 fsz32ob4   -0.00423 -0.00436 -0.0738  -0.120    0.0707 -0.140   0.0299 
 5 fsz32ob5    0.209    0.311   -0.311   -0.00442  0.0694 -0.0939 -0.0110 
 6 fsz32ob6    0.177   -0.0296  -0.165   -0.751   -0.119   0.139   0.0320 
 7 fsz32ob7    0.192    0.194   -0.00173  0.0298   0.0520  0.295   0.101  
 8 fsz32ob8   -0.249   -0.400    0.0245  -0.00368 -0.163  -0.288  -0.349  
 9 fsz32ob9    0.679   -0.0239  -0.102   -0.263   -0.186   0.0882 -0.175  
10 fsz32ob10  -0.205   -0.0422   0.0190   0.0426  -0.0452 -0.0409 -0.0627 
# … with 22 more rows
…
$fsz32ob_w
# A tibble: 32 × 7
   cand_model  sc_gw1    sc_gw2  sc_gw3 sc_gw4  sc_gw5   sc_gw6
   <chr>        <dbl>     <dbl>   <dbl>  <dbl>   <dbl>    <dbl>
 1 fsz32ob1    0.361   0.000262 -0.0869  0.234  0.148   0.0261 
 2 fsz32ob2    0.128  -0.00426  -0.170   0.183  0.234   0.00388
 3 fsz32ob3    0.123  -0.0960   -0.210   0.214  0.182  -0.151  
 4 fsz32ob4    0.0170 -0.00890  -0.107   0.224 -0.0795  0.00621
 5 fsz32ob5    0.402  -0.288    -0.201   0.218 -0.126  -0.144  
 6 fsz32ob6    0.214  -0.154    -0.699   0.237  0.0804  0.0813 
 7 fsz32ob7    0.392  -0.0426   -0.140   0.224  0.216  -0.0180 
 8 fsz32ob8   -0.392  -0.0597    0.128  -0.389 -0.246  -0.217  
 9 fsz32ob9    0.172  -0.136    -0.301   0.307  0.290  -0.0567 
10 fsz32ob10  -0.0967 -0.0135    0.0976 -0.178  0.0752 -0.0820 
# … with 22 more rows
…
$fsz32ob_s
# A tibble: 32 × 8
   cand_model  sc_ds1  sc_ds2   sc_ds3   sc_ds4  sc_ds5    sc_ds6  sc_ds7
   <chr>        <dbl>   <dbl>    <dbl>    <dbl>   <dbl>     <dbl>   <dbl>
 1 fsz32ob1    0.444   0.201   0.109   -0.0702   0.454  -0.149     0.109 
 2 fsz32ob2   -0.0357  0.191   0.123    0.00958  0.0360 -0.0661    0.0345
 3 fsz32ob3    0.0639  0.201  -0.184   -0.0245   0.147  -0.161    -0.203 
 4 fsz32ob4    0.0700  0.0147 -0.0847  -0.0918  -0.0695  0.103     0.127 
 5 fsz32ob5    0.386   0.288   0.00506 -0.377    0.291  -0.197    -0.151 
 6 fsz32ob6    0.273   0.265  -0.149   -0.155    0.106  -0.0590   -0.0273
 7 fsz32ob7    0.309   0.237   0.0938  -0.0746   0.357  -0.136    -0.0604
 8 fsz32ob8   -0.390  -0.336  -0.264    0.00743 -0.366  -0.000986 -0.173 
 9 fsz32ob9    0.116   0.618  -0.0557  -0.134    0.0101 -0.191    -0.232 
10 fsz32ob10  -0.101  -0.196  -0.0290   0.107   -0.101   0.0283   -0.0298
# … with 22 more rows
…
$fsz32ob_p
# A tibble: 32 × 8
   cand_model  sc_dp1   sc_dp2    sc_dp3   sc_dp4  sc_dp5  sc_dp6   sc_dp7
   <chr>        <dbl>    <dbl>     <dbl>    <dbl>   <dbl>   <dbl>    <dbl>
 1 fsz32ob1    0.459  -0.0115   0.179     0.239    0.0795 -0.0256  0.0215 
 2 fsz32ob2   -0.0284 -0.151    0.252     0.0367   0.0631 -0.0647  0.00700
 3 fsz32ob3    0.135  -0.104    0.158     0.0409   0.146  -0.140   0.0433 
 4 fsz32ob4    0.0665 -0.122    0.000167 -0.00967 -0.178   0.113  -0.0759 
 5 fsz32ob5    0.465  -0.0706   0.129     0.0885  -0.241  -0.158   0.0333 
 6 fsz32ob6    0.223  -0.731    0.203     0.0992  -0.0445 -0.0566  0.0168 
 7 fsz32ob7    0.426  -0.0507   0.206     0.195    0.166  -0.0685  0.104  
 8 fsz32ob8   -0.345   0.00992 -0.360    -0.286    0.0172 -0.0496 -0.312  
 9 fsz32ob9    0.112  -0.218    0.610     0.0213  -0.0686 -0.286  -0.00730
10 fsz32ob10  -0.120   0.0734  -0.200    -0.137    0.0485  0.0717 -0.126  
# … with 22 more rows
…
$fsz32ob_ext
# A tibble: 32 × 2
   cand_model       V1
   <chr>         <dbl>
 1 fsz32ob1    0.0327 
 2 fsz32ob2   -0.0691 
 3 fsz32ob3   -0.479  
 4 fsz32ob4   -0.0130 
 5 fsz32ob5    0.00699
 6 fsz32ob6   -0.243  
 7 fsz32ob7   -0.0819 
 8 fsz32ob8    0.0640 
 9 fsz32ob9   -0.272  
10 fsz32ob10   0.112  
# … with 22 more rows
…
$fsz32ob_agr
# A tibble: 32 × 2
   cand_model      V1
   <chr>        <dbl>
 1 fsz32ob1   -0.453 
 2 fsz32ob2    0.0120
 3 fsz32ob3   -0.0736
 4 fsz32ob4   -0.0984
 5 fsz32ob5   -0.249 
 6 fsz32ob6   -0.244 
 7 fsz32ob7   -0.290 
 8 fsz32ob8    0.372 
 9 fsz32ob9   -0.0400
10 fsz32ob10   0.0689
# … with 22 more rows
…
$fsz32ob_consc
# A tibble: 32 × 2
   cand_model      V1
   <chr>        <dbl>
 1 fsz32ob1   -0.145 
 2 fsz32ob2   -0.0340
 3 fsz32ob3   -0.104 
 4 fsz32ob4    0.131 
 5 fsz32ob5   -0.306 
 6 fsz32ob6   -0.0751
 7 fsz32ob7   -0.285 
 8 fsz32ob8    0.0975
 9 fsz32ob9   -0.112 
10 fsz32ob10   0.0493
# … with 22 more rows
…
$fsz32ob_es
# A tibble: 32 × 2
   cand_model      V1
   <chr>        <dbl>
 1 fsz32ob1   -0.122 
 2 fsz32ob2   -0.249 
 3 fsz32ob3   -0.0984
 4 fsz32ob4    0.0379
 5 fsz32ob5    0.178 
 6 fsz32ob6   -0.147 
 7 fsz32ob7   -0.133 
 8 fsz32ob8    0.263 
 9 fsz32ob9   -0.179 
10 fsz32ob10  -0.0772
# … with 22 more rows
…
$fsz32ob_intl
# A tibble: 32 × 2
   cand_model      V1
   <chr>        <dbl>
 1 fsz32ob1    0.0345
 2 fsz32ob2    0.0841
 3 fsz32ob3    0.0922
 4 fsz32ob4   -0.446 
 5 fsz32ob5   -0.230 
 6 fsz32ob6   -0.0762
 7 fsz32ob7    0.119 
 8 fsz32ob8    0.0433
 9 fsz32ob9   -0.0605
10 fsz32ob10   0.184 
# … with 22 more rows
…
$fsz32ob_gr
# A tibble: 32 × 2
   cand_model      V1
   <chr>        <dbl>
 1 fsz32ob1    0.0134
 2 fsz32ob2   -0.0464
 3 fsz32ob3   -0.412 
 4 fsz32ob4   -0.0795
 5 fsz32ob5   -0.0522
 6 fsz32ob6   -0.406 
 7 fsz32ob7   -0.0853
 8 fsz32ob8    0.0911
 9 fsz32ob9   -0.232 
10 fsz32ob10   0.116 
# … with 22 more rows
…
$fsz32ob_sa
# A tibble: 32 × 2
   cand_model      V1
   <chr>        <dbl>
 1 fsz32ob1    0.0162
 2 fsz32ob2   -0.420 
 3 fsz32ob3   -0.283 
 4 fsz32ob4    0.0855
 5 fsz32ob5    0.0369
 6 fsz32ob6   -0.219 
 7 fsz32ob7   -0.166 
 8 fsz32ob8    0.110 
 9 fsz32ob9   -0.441 
10 fsz32ob10   0.119 
# … with 22 more rows
…
$fsz32ob_tmp
# A tibble: 32 × 2
   cand_model       V1
   <chr>         <dbl>
 1 fsz32ob1   -0.332  
 2 fsz32ob2   -0.180  
 3 fsz32ob3   -0.114  
 4 fsz32ob4    0.00474
 5 fsz32ob5   -0.0834 
 6 fsz32ob6   -0.272  
 7 fsz32ob7   -0.281  
 8 fsz32ob8    0.392  
 9 fsz32ob9   -0.123  
10 fsz32ob10  -0.00410
# … with 22 more rows
…
$fsz32ob_cfo
# A tibble: 32 × 2
   cand_model      V1
   <chr>        <dbl>
 1 fsz32ob1   -0.421 
 2 fsz32ob2    0.0347
 3 fsz32ob3   -0.0688
 4 fsz32ob4   -0.0933
 5 fsz32ob5   -0.314 
 6 fsz32ob6   -0.266 
 7 fsz32ob7   -0.269 
 8 fsz32ob8    0.266 
 9 fsz32ob9   -0.124 
10 fsz32ob10   0.0807
# … with 22 more rows
…
$fsz32ob_con
# A tibble: 32 × 2
   cand_model      V1
   <chr>        <dbl>
 1 fsz32ob1   -0.0891
 2 fsz32ob2    0.0703
 3 fsz32ob3   -0.0410
 4 fsz32ob4    0.119 
 5 fsz32ob5   -0.250 
 6 fsz32ob6   -0.0118
 7 fsz32ob7   -0.147 
 8 fsz32ob8   -0.0716
 9 fsz32ob9   -0.0769
10 fsz32ob10   0.0146
# … with 22 more rows
…
$fsz32ob_int
# A tibble: 32 × 2
   cand_model      V1
   <chr>        <dbl>
 1 fsz32ob1   -0.0642
 2 fsz32ob2    0.0531
 3 fsz32ob3   -0.0180
 4 fsz32ob4   -0.187 
 5 fsz32ob5   -0.375 
 6 fsz32ob6   -0.185 
 7 fsz32ob7   -0.0180
 8 fsz32ob8    0.0985
 9 fsz32ob9   -0.134 
10 fsz32ob10   0.209 
# … with 22 more rows
…
$fsz32ob_nval
# A tibble: 32 × 2
   cand_model      V1
   <chr>        <dbl>
 1 fsz32ob1    0.421 
 2 fsz32ob2    0.0214
 3 fsz32ob3    0.121 
 4 fsz32ob4    0.0472
 5 fsz32ob5    0.381 
 6 fsz32ob6    0.248 
 7 fsz32ob7    0.377 
 8 fsz32ob8   -0.338 
 9 fsz32ob9    0.131 
10 fsz32ob10  -0.112 
# … with 22 more rows
…
$fsz32ob_scb1.sd
# A tibble: 32 × 2
   cand_model      V1
   <chr>        <dbl>
 1 fsz32ob1   -0.390 
 2 fsz32ob2   -0.0479
 3 fsz32ob3   -0.163 
 4 fsz32ob4   -0.0107
 5 fsz32ob5   -0.336 
 6 fsz32ob6   -0.282 
 7 fsz32ob7   -0.345 
 8 fsz32ob8    0.323 
 9 fsz32ob9   -0.166 
10 fsz32ob10   0.0679
# … with 22 more rows
…
$fsz32ob_scb2.s10
# A tibble: 32 × 2
   cand_model       V1
   <chr>         <dbl>
 1 fsz32ob1   -0.450  
 2 fsz32ob2   -0.00311
 3 fsz32ob3   -0.0957 
 4 fsz32ob4   -0.0290 
 5 fsz32ob5   -0.304  
 6 fsz32ob6   -0.217  
 7 fsz32ob7   -0.358  
 8 fsz32ob8    0.340  
 9 fsz32ob9   -0.0814 
10 fsz32ob10   0.0615 
# … with 22 more rows
…
$fsz32ob_scb2.d10
# A tibble: 32 × 2
   cand_model      V1
   <chr>        <dbl>
 1 fsz32ob1   -0.114 
 2 fsz32ob2   -0.101 
 3 fsz32ob3   -0.430 
 4 fsz32ob4   -0.0752
 5 fsz32ob5   -0.256 
 6 fsz32ob6   -0.391 
 7 fsz32ob7   -0.169 
 8 fsz32ob8    0.163 
 9 fsz32ob9   -0.320 
10 fsz32ob10   0.175 
# … with 22 more rows
…
